Using device type:   cuda
cuda devices:        1
cuda current device: 0
cuda device name:    Tesla V100-PCIE-16GB

>> load network /scratch/boileau/sciml/scimba/examples/Pinns/elliptic/networks/test.pth
network was not loaded from file: training needed
epoch     0: current loss = 5.72e+02
epoch     0: best loss = 5.72e+02
epoch     1: best loss = 5.65e+02
epoch     4: best loss = 5.56e+02
epoch     5: best loss = 5.55e+02
epoch     6: best loss = 5.46e+02
epoch    10: best loss = 5.40e+02
epoch    13: best loss = 5.30e+02
epoch    18: best loss = 5.19e+02
epoch    19: best loss = 3.47e+02
epoch    24: best loss = 2.89e+02
epoch    25: best loss = 2.78e+02
epoch    26: best loss = 2.50e+02
epoch    27: best loss = 2.39e+02
epoch    28: best loss = 2.21e+02
epoch    29: best loss = 2.08e+02
epoch    30: best loss = 2.03e+02
epoch    31: best loss = 1.96e+02
epoch    32: best loss = 1.88e+02
epoch    33: best loss = 1.86e+02
epoch    34: best loss = 1.77e+02
epoch    35: best loss = 1.74e+02
epoch    37: best loss = 1.65e+02
epoch    38: best loss = 1.65e+02
epoch    39: best loss = 1.59e+02
epoch    40: best loss = 1.58e+02
epoch    41: best loss = 1.53e+02
epoch    42: best loss = 1.51e+02
epoch    43: best loss = 1.49e+02
epoch    44: best loss = 1.46e+02
epoch    45: best loss = 1.44e+02
epoch    46: best loss = 1.41e+02
epoch    47: best loss = 1.39e+02
epoch    48: best loss = 1.38e+02
epoch    49: best loss = 1.34e+02
epoch    50: best loss = 1.32e+02
epoch    51: best loss = 1.30e+02
epoch    52: best loss = 1.30e+02
epoch    53: best loss = 1.28e+02
epoch    55: best loss = 1.25e+02
epoch    56: best loss = 1.23e+02
epoch    57: best loss = 1.19e+02
epoch    59: best loss = 1.19e+02
epoch    60: best loss = 1.17e+02
epoch    61: best loss = 1.17e+02
epoch    62: best loss = 1.16e+02
epoch    63: best loss = 1.15e+02
epoch    64: best loss = 1.11e+02
epoch    66: best loss = 1.09e+02
epoch    68: best loss = 1.07e+02
epoch    69: best loss = 1.06e+02
epoch    72: best loss = 1.04e+02
epoch    73: best loss = 1.03e+02
epoch    74: best loss = 1.01e+02
epoch    76: best loss = 9.93e+01
epoch    77: best loss = 9.91e+01
epoch    78: best loss = 9.81e+01
epoch    79: best loss = 9.73e+01
epoch    80: best loss = 9.68e+01
epoch    81: best loss = 9.67e+01
epoch    82: best loss = 9.38e+01
epoch    83: best loss = 9.37e+01
epoch    84: best loss = 9.33e+01
epoch    85: best loss = 9.24e+01
epoch    86: best loss = 9.03e+01
epoch    88: best loss = 8.80e+01
epoch    90: best loss = 8.73e+01
epoch    92: best loss = 8.63e+01
epoch    94: best loss = 8.28e+01
epoch    95: best loss = 8.27e+01
epoch    97: best loss = 8.06e+01
epoch    98: best loss = 7.97e+01
epoch    99: best loss = 7.83e+01
epoch    99: current loss = 7.83e+01
load network
TLAYERS       = [80, 80, 80, 80, 80, 80, 80]
batch_size    = 5000
n_epochs      = 100
n_collocation = 15000
Training time [s]                      : 31.5827
Mean execution time per epoch [s/epoch]: 0.3158
